{
  "author": ["Eragon5779"],
  "bot_version": [3,0,0],
  "short": "Wrapper for Python UUID and ULID libraries",
  "description": "Wrapper for Python UUID and ULID libraries. Supports the following UUIDs: 3, 4, 5\nULID spec defined here: https://github.com/ulid/spec",
  "disabled": false,
  "name": "GenID",
  "tags": ["utility", "identity"],
  "install_msg": "Usage: \n```\n[p]ulid\n[p]uuid <version> <data>\n[p]uuid2ulid\n[p]ulid2uuid```"
}
