{
  "author": ["Eragon5779"],
  "bot_version": [3,0,0],
  "short": "Compare the top CPUs for your build needs",
  "description": "Searches for CPUs from both Intel and AMD.\nAlso has the ability to compare 2 CPUs spec-for-spec",
  "install_msg": "Thank you for installing CPUCompare!\nPlease note that this cog comes with bundled JSON data for the CPU specs",
  "disabled": false,
  "name": "CPUCompare",
  "tags": ["utility", "search"]
}
