{
  "author": ["Eragon5779"],
  "bot_version": [3,0,0],
  "short": "Wrapper for Python base64 library",
  "description": "Wrapper for Python base64 library. Supports the following bases: 16,32,64,85",
  "disabled": false,
  "name": "Encode",
  "tags": ["utility", "encode"],
  "install_msg": "Usage: \n```\n[p]encode <method> <data>\n[p]decode <method> <data>```"
}
